{
  "Comment.nvim": { "branch": "master", "commit": "0236521ea582747b58869cb72f70ccfa967d2e89" },
  "LuaSnip": { "branch": "master", "commit": "46c91e814732c1630b8a8b50d04acbf54b8320fa" },
  "base46-colors": { "branch": "main", "commit": "9b142cf7ecef300d6e66f05ed8ae77f4e358bfcd" },
  "cmp-nvim-lsp": { "branch": "main", "commit": "44b16d11215dce86f253ce0c30949813c0a90765" },
  "cmp_luasnip": { "branch": "master", "commit": "05a9ab28b53f71d1aece421ef32fee2cb857a843" },
  "fidget.nvim": { "branch": "main", "commit": "0ba1e16d07627532b6cae915cc992ecac249fb97" },
  "gitsigns.nvim": { "branch": "main", "commit": "af0f583cd35286dd6f0e3ed52622728703237e50" },
  "indent-blankline.nvim": { "branch": "master", "commit": "29be0919b91fb59eca9e90690d76014233392bef" },
  "lazy.nvim": { "branch": "main", "commit": "96584866b9c5e998cbae300594d0ccfd0c464627" },
  "lazygit.nvim": { "branch": "main", "commit": "de35012036d43bca03628d40d083f7c02a4cda3f" },
  "lualine.nvim": { "branch": "master", "commit": "2248ef254d0a1488a72041cfb45ca9caada6d994" },
  "mason-lspconfig.nvim": { "branch": "main", "commit": "6eb8cae80f2e4322ec82cd9f8fa423f6d1eb02c3" },
  "mason.nvim": { "branch": "main", "commit": "41e75af1f578e55ba050c863587cffde3556ffa6" },
  "neo-tree.nvim": { "branch": "v3.x", "commit": "f053f09962819c1558cd93639aa80edf7c314c17" },
  "neodev.nvim": { "branch": "main", "commit": "20f1e5d3c143333bdf5ea48729f7b50660135cb3" },
  "nui.nvim": { "branch": "main", "commit": "c0c8e347ceac53030f5c1ece1c5a5b6a17a25b32" },
  "nvim-autopairs": { "branch": "master", "commit": "0f04d78619cce9a5af4f355968040f7d675854a1" },
  "nvim-cmp": { "branch": "main", "commit": "0b751f6beef40fd47375eaf53d3057e0bfa317e4" },
  "nvim-colorizer.lua": { "branch": "master", "commit": "36c610a9717cc9ec426a07c8e6bf3b3abcb139d6" },
  "nvim-lspconfig": { "branch": "master", "commit": "b0852218bc5fa6514a71a9da6d5cfa63a263c83d" },
  "nvim-surround": { "branch": "main", "commit": "4f0e1f470595af067eca9b872778d83c7f52f134" },
  "nvim-tmux-navigation": { "branch": "main", "commit": "d9efffa413a530bdea3783af4fea86be84940283" },
  "nvim-treesitter": { "branch": "master", "commit": "075a64addc33390028ea124a1046a43497f05cd1" },
  "nvim-treesitter-textobjects": { "branch": "master", "commit": "dbcd9388e3b119a87c785e10a00d62876077d23d" },
  "nvim-web-devicons": { "branch": "master", "commit": "47103b80c38c59f7a1b5408c232b92bf5d018651" },
  "onedark.nvim": { "branch": "master", "commit": "b9acd92ded2ba155867ca5af9d618e933d96e3b0" },
  "plenary.nvim": { "branch": "master", "commit": "50012918b2fc8357b87cff2a7f7f0446e47da174" },
  "telescope-fzf-native.nvim": { "branch": "main", "commit": "6c921ca12321edaa773e324ef64ea301a1d0da62" },
  "telescope.nvim": { "branch": "0.1.x", "commit": "7011eaae0ac1afe036e30c95cf80200b8dc3f21a" },
  "todo-comments.nvim": { "branch": "main", "commit": "4a6737a8d70fe1ac55c64dfa47fcb189ca431872" },
  "vim-fish": { "branch": "master", "commit": "50b95cbbcd09c046121367d49039710e9dc9c15f" },
  "vim-fugitive": { "branch": "master", "commit": "46eaf8918b347906789df296143117774e827616" },
  "vim-rhubarb": { "branch": "master", "commit": "ee69335de176d9325267b0fd2597a22901d927b1" },
  "vim-sleuth": { "branch": "master", "commit": "1cc4557420f215d02c4d2645a748a816c220e99b" },
  "which-key.nvim": { "branch": "main", "commit": "4433e5ec9a507e5097571ed55c02ea9658fb268a" }
}